^C:\USERS\SERGI\DOCUMENTS\VISUAL STUDIO 2015\PROJECTS\QUAKE\PROZACQW\ZLIB\ADLER32.C
/c /I..\..\..\ZLIB /Zi /nologo /W3 /WX- /O2 /Ob1 /Oy- /D WIN32 /D NDEBUG /D _CRT_SECURE_NO_WARNINGS /D _CRT_NONSTDC_NO_WARNINGS /GF /Gm- /EHsc /MT /GS /Gy /fp:precise /Zc:wchar_t /Zc:forScope /Zc:inline /Fo".\WIN32_LIB_RELEASE\ZLIB\\" /Fd".\WIN32_LIB_RELEASE\ZLIB\ZLIB.PDB" /Gd /TC /analyze- C:\USERS\SERGI\DOCUMENTS\VISUAL STUDIO 2015\PROJECTS\QUAKE\PROZACQW\ZLIB\ADLER32.C
^C:\USERS\SERGI\DOCUMENTS\VISUAL STUDIO 2015\PROJECTS\QUAKE\PROZACQW\ZLIB\COMPRESS.C
/c /I..\..\..\ZLIB /Zi /nologo /W3 /WX- /O2 /Ob1 /Oy- /D WIN32 /D NDEBUG /D _CRT_SECURE_NO_WARNINGS /D _CRT_NONSTDC_NO_WARNINGS /GF /Gm- /EHsc /MT /GS /Gy /fp:precise /Zc:wchar_t /Zc:forScope /Zc:inline /Fo".\WIN32_LIB_RELEASE\ZLIB\\" /Fd".\WIN32_LIB_RELEASE\ZLIB\ZLIB.PDB" /Gd /TC /analyze- C:\USERS\SERGI\DOCUMENTS\VISUAL STUDIO 2015\PROJECTS\QUAKE\PROZACQW\ZLIB\COMPRESS.C
^C:\USERS\SERGI\DOCUMENTS\VISUAL STUDIO 2015\PROJECTS\QUAKE\PROZACQW\ZLIB\CRC32.C
/c /I..\..\..\ZLIB /Zi /nologo /W3 /WX- /O2 /Ob1 /Oy- /D WIN32 /D NDEBUG /D _CRT_SECURE_NO_WARNINGS /D _CRT_NONSTDC_NO_WARNINGS /GF /Gm- /EHsc /MT /GS /Gy /fp:precise /Zc:wchar_t /Zc:forScope /Zc:inline /Fo".\WIN32_LIB_RELEASE\ZLIB\\" /Fd".\WIN32_LIB_RELEASE\ZLIB\ZLIB.PDB" /Gd /TC /analyze- C:\USERS\SERGI\DOCUMENTS\VISUAL STUDIO 2015\PROJECTS\QUAKE\PROZACQW\ZLIB\CRC32.C
^C:\USERS\SERGI\DOCUMENTS\VISUAL STUDIO 2015\PROJECTS\QUAKE\PROZACQW\ZLIB\DEFLATE.C
/c /I..\..\..\ZLIB /Zi /nologo /W3 /WX- /O2 /Ob1 /Oy- /D WIN32 /D NDEBUG /D _CRT_SECURE_NO_WARNINGS /D _CRT_NONSTDC_NO_WARNINGS /GF /Gm- /EHsc /MT /GS /Gy /fp:precise /Zc:wchar_t /Zc:forScope /Zc:inline /Fo".\WIN32_LIB_RELEASE\ZLIB\\" /Fd".\WIN32_LIB_RELEASE\ZLIB\ZLIB.PDB" /Gd /TC /analyze- C:\USERS\SERGI\DOCUMENTS\VISUAL STUDIO 2015\PROJECTS\QUAKE\PROZACQW\ZLIB\DEFLATE.C
^C:\USERS\SERGI\DOCUMENTS\VISUAL STUDIO 2015\PROJECTS\QUAKE\PROZACQW\ZLIB\GZCLOSE.C
/c /I..\..\..\ZLIB /Zi /nologo /W3 /WX- /O2 /Ob1 /Oy- /D WIN32 /D NDEBUG /D _CRT_SECURE_NO_WARNINGS /D _CRT_NONSTDC_NO_WARNINGS /GF /Gm- /EHsc /MT /GS /Gy /fp:precise /Zc:wchar_t /Zc:forScope /Zc:inline /Fo".\WIN32_LIB_RELEASE\ZLIB\\" /Fd".\WIN32_LIB_RELEASE\ZLIB\ZLIB.PDB" /Gd /TC /analyze- C:\USERS\SERGI\DOCUMENTS\VISUAL STUDIO 2015\PROJECTS\QUAKE\PROZACQW\ZLIB\GZCLOSE.C
^C:\USERS\SERGI\DOCUMENTS\VISUAL STUDIO 2015\PROJECTS\QUAKE\PROZACQW\ZLIB\GZLIB.C
/c /I..\..\..\ZLIB /Zi /nologo /W3 /WX- /O2 /Ob1 /Oy- /D WIN32 /D NDEBUG /D _CRT_SECURE_NO_WARNINGS /D _CRT_NONSTDC_NO_WARNINGS /GF /Gm- /EHsc /MT /GS /Gy /fp:precise /Zc:wchar_t /Zc:forScope /Zc:inline /Fo".\WIN32_LIB_RELEASE\ZLIB\\" /Fd".\WIN32_LIB_RELEASE\ZLIB\ZLIB.PDB" /Gd /TC /analyze- C:\USERS\SERGI\DOCUMENTS\VISUAL STUDIO 2015\PROJECTS\QUAKE\PROZACQW\ZLIB\GZLIB.C
^C:\USERS\SERGI\DOCUMENTS\VISUAL STUDIO 2015\PROJECTS\QUAKE\PROZACQW\ZLIB\GZREAD.C
/c /I..\..\..\ZLIB /Zi /nologo /W3 /WX- /O2 /Ob1 /Oy- /D WIN32 /D NDEBUG /D _CRT_SECURE_NO_WARNINGS /D _CRT_NONSTDC_NO_WARNINGS /GF /Gm- /EHsc /MT /GS /Gy /fp:precise /Zc:wchar_t /Zc:forScope /Zc:inline /Fo".\WIN32_LIB_RELEASE\ZLIB\\" /Fd".\WIN32_LIB_RELEASE\ZLIB\ZLIB.PDB" /Gd /TC /analyze- C:\USERS\SERGI\DOCUMENTS\VISUAL STUDIO 2015\PROJECTS\QUAKE\PROZACQW\ZLIB\GZREAD.C
^C:\USERS\SERGI\DOCUMENTS\VISUAL STUDIO 2015\PROJECTS\QUAKE\PROZACQW\ZLIB\GZWRITE.C
/c /I..\..\..\ZLIB /Zi /nologo /W3 /WX- /O2 /Ob1 /Oy- /D WIN32 /D NDEBUG /D _CRT_SECURE_NO_WARNINGS /D _CRT_NONSTDC_NO_WARNINGS /GF /Gm- /EHsc /MT /GS /Gy /fp:precise /Zc:wchar_t /Zc:forScope /Zc:inline /Fo".\WIN32_LIB_RELEASE\ZLIB\\" /Fd".\WIN32_LIB_RELEASE\ZLIB\ZLIB.PDB" /Gd /TC /analyze- C:\USERS\SERGI\DOCUMENTS\VISUAL STUDIO 2015\PROJECTS\QUAKE\PROZACQW\ZLIB\GZWRITE.C
^C:\USERS\SERGI\DOCUMENTS\VISUAL STUDIO 2015\PROJECTS\QUAKE\PROZACQW\ZLIB\INFBACK.C
/c /I..\..\..\ZLIB /Zi /nologo /W3 /WX- /O2 /Ob1 /Oy- /D WIN32 /D NDEBUG /D _CRT_SECURE_NO_WARNINGS /D _CRT_NONSTDC_NO_WARNINGS /GF /Gm- /EHsc /MT /GS /Gy /fp:precise /Zc:wchar_t /Zc:forScope /Zc:inline /Fo".\WIN32_LIB_RELEASE\ZLIB\\" /Fd".\WIN32_LIB_RELEASE\ZLIB\ZLIB.PDB" /Gd /TC /analyze- C:\USERS\SERGI\DOCUMENTS\VISUAL STUDIO 2015\PROJECTS\QUAKE\PROZACQW\ZLIB\INFBACK.C
^C:\USERS\SERGI\DOCUMENTS\VISUAL STUDIO 2015\PROJECTS\QUAKE\PROZACQW\ZLIB\INFFAST.C
/c /I..\..\..\ZLIB /Zi /nologo /W3 /WX- /O2 /Ob1 /Oy- /D WIN32 /D NDEBUG /D _CRT_SECURE_NO_WARNINGS /D _CRT_NONSTDC_NO_WARNINGS /GF /Gm- /EHsc /MT /GS /Gy /fp:precise /Zc:wchar_t /Zc:forScope /Zc:inline /Fo".\WIN32_LIB_RELEASE\ZLIB\\" /Fd".\WIN32_LIB_RELEASE\ZLIB\ZLIB.PDB" /Gd /TC /analyze- C:\USERS\SERGI\DOCUMENTS\VISUAL STUDIO 2015\PROJECTS\QUAKE\PROZACQW\ZLIB\INFFAST.C
^C:\USERS\SERGI\DOCUMENTS\VISUAL STUDIO 2015\PROJECTS\QUAKE\PROZACQW\ZLIB\INFLATE.C
/c /I..\..\..\ZLIB /Zi /nologo /W3 /WX- /O2 /Ob1 /Oy- /D WIN32 /D NDEBUG /D _CRT_SECURE_NO_WARNINGS /D _CRT_NONSTDC_NO_WARNINGS /GF /Gm- /EHsc /MT /GS /Gy /fp:precise /Zc:wchar_t /Zc:forScope /Zc:inline /Fo".\WIN32_LIB_RELEASE\ZLIB\\" /Fd".\WIN32_LIB_RELEASE\ZLIB\ZLIB.PDB" /Gd /TC /analyze- C:\USERS\SERGI\DOCUMENTS\VISUAL STUDIO 2015\PROJECTS\QUAKE\PROZACQW\ZLIB\INFLATE.C
^C:\USERS\SERGI\DOCUMENTS\VISUAL STUDIO 2015\PROJECTS\QUAKE\PROZACQW\ZLIB\INFTREES.C
/c /I..\..\..\ZLIB /Zi /nologo /W3 /WX- /O2 /Ob1 /Oy- /D WIN32 /D NDEBUG /D _CRT_SECURE_NO_WARNINGS /D _CRT_NONSTDC_NO_WARNINGS /GF /Gm- /EHsc /MT /GS /Gy /fp:precise /Zc:wchar_t /Zc:forScope /Zc:inline /Fo".\WIN32_LIB_RELEASE\ZLIB\\" /Fd".\WIN32_LIB_RELEASE\ZLIB\ZLIB.PDB" /Gd /TC /analyze- C:\USERS\SERGI\DOCUMENTS\VISUAL STUDIO 2015\PROJECTS\QUAKE\PROZACQW\ZLIB\INFTREES.C
^C:\USERS\SERGI\DOCUMENTS\VISUAL STUDIO 2015\PROJECTS\QUAKE\PROZACQW\ZLIB\TREES.C
/c /I..\..\..\ZLIB /Zi /nologo /W3 /WX- /O2 /Ob1 /Oy- /D WIN32 /D NDEBUG /D _CRT_SECURE_NO_WARNINGS /D _CRT_NONSTDC_NO_WARNINGS /GF /Gm- /EHsc /MT /GS /Gy /fp:precise /Zc:wchar_t /Zc:forScope /Zc:inline /Fo".\WIN32_LIB_RELEASE\ZLIB\\" /Fd".\WIN32_LIB_RELEASE\ZLIB\ZLIB.PDB" /Gd /TC /analyze- C:\USERS\SERGI\DOCUMENTS\VISUAL STUDIO 2015\PROJECTS\QUAKE\PROZACQW\ZLIB\TREES.C
^C:\USERS\SERGI\DOCUMENTS\VISUAL STUDIO 2015\PROJECTS\QUAKE\PROZACQW\ZLIB\UNCOMPR.C
/c /I..\..\..\ZLIB /Zi /nologo /W3 /WX- /O2 /Ob1 /Oy- /D WIN32 /D NDEBUG /D _CRT_SECURE_NO_WARNINGS /D _CRT_NONSTDC_NO_WARNINGS /GF /Gm- /EHsc /MT /GS /Gy /fp:precise /Zc:wchar_t /Zc:forScope /Zc:inline /Fo".\WIN32_LIB_RELEASE\ZLIB\\" /Fd".\WIN32_LIB_RELEASE\ZLIB\ZLIB.PDB" /Gd /TC /analyze- C:\USERS\SERGI\DOCUMENTS\VISUAL STUDIO 2015\PROJECTS\QUAKE\PROZACQW\ZLIB\UNCOMPR.C
^C:\USERS\SERGI\DOCUMENTS\VISUAL STUDIO 2015\PROJECTS\QUAKE\PROZACQW\ZLIB\ZUTIL.C
/c /I..\..\..\ZLIB /Zi /nologo /W3 /WX- /O2 /Ob1 /Oy- /D WIN32 /D NDEBUG /D _CRT_SECURE_NO_WARNINGS /D _CRT_NONSTDC_NO_WARNINGS /GF /Gm- /EHsc /MT /GS /Gy /fp:precise /Zc:wchar_t /Zc:forScope /Zc:inline /Fo".\WIN32_LIB_RELEASE\ZLIB\\" /Fd".\WIN32_LIB_RELEASE\ZLIB\ZLIB.PDB" /Gd /TC /analyze- C:\USERS\SERGI\DOCUMENTS\VISUAL STUDIO 2015\PROJECTS\QUAKE\PROZACQW\ZLIB\ZUTIL.C
