^C:\USERS\SERGI\DOCUMENTS\VISUAL STUDIO 2015\PROJECTS\QUAKE\PROZACQW\ZLIB\ADLER32.C|C:\USERS\SERGI\DOCUMENTS\VISUAL STUDIO 2015\PROJECTS\QUAKE\PROZACQW\ZLIB\COMPRESS.C|C:\USERS\SERGI\DOCUMENTS\VISUAL STUDIO 2015\PROJECTS\QUAKE\PROZACQW\ZLIB\CRC32.C|C:\USERS\SERGI\DOCUMENTS\VISUAL STUDIO 2015\PROJECTS\QUAKE\PROZACQW\ZLIB\DEFLATE.C|C:\USERS\SERGI\DOCUMENTS\VISUAL STUDIO 2015\PROJECTS\QUAKE\PROZACQW\ZLIB\GZCLOSE.C|C:\USERS\SERGI\DOCUMENTS\VISUAL STUDIO 2015\PROJECTS\QUAKE\PROZACQW\ZLIB\GZLIB.C|C:\USERS\SERGI\DOCUMENTS\VISUAL STUDIO 2015\PROJECTS\QUAKE\PROZACQW\ZLIB\GZREAD.C|C:\USERS\SERGI\DOCUMENTS\VISUAL STUDIO 2015\PROJECTS\QUAKE\PROZACQW\ZLIB\GZWRITE.C|C:\USERS\SERGI\DOCUMENTS\VISUAL STUDIO 2015\PROJECTS\QUAKE\PROZACQW\ZLIB\INFBACK.C|C:\USERS\SERGI\DOCUMENTS\VISUAL STUDIO 2015\PROJECTS\QUAKE\PROZACQW\ZLIB\INFFAST.C|C:\USERS\SERGI\DOCUMENTS\VISUAL STUDIO 2015\PROJECTS\QUAKE\PROZACQW\ZLIB\INFLATE.C|C:\USERS\SERGI\DOCUMENTS\VISUAL STUDIO 2015\PROJECTS\QUAKE\PROZACQW\ZLIB\INFTREES.C|C:\USERS\SERGI\DOCUMENTS\VISUAL STUDIO 2015\PROJECTS\QUAKE\PROZACQW\ZLIB\TREES.C|C:\USERS\SERGI\DOCUMENTS\VISUAL STUDIO 2015\PROJECTS\QUAKE\PROZACQW\ZLIB\UNCOMPR.C|C:\USERS\SERGI\DOCUMENTS\VISUAL STUDIO 2015\PROJECTS\QUAKE\PROZACQW\ZLIB\ZUTIL.C
C:\USERS\SERGI\DOCUMENTS\VISUAL STUDIO 2015\PROJECTS\QUAKE\PROZACQW\LPNG1637\PROJECTS\VISUALC71\WIN32_LIB_RELEASE\ZLIB\ZLIB.PDB
C:\USERS\SERGI\DOCUMENTS\VISUAL STUDIO 2015\PROJECTS\QUAKE\PROZACQW\LPNG1637\PROJECTS\VISUALC71\WIN32_LIB_RELEASE\ZLIB\ZUTIL.OBJ
C:\USERS\SERGI\DOCUMENTS\VISUAL STUDIO 2015\PROJECTS\QUAKE\PROZACQW\LPNG1637\PROJECTS\VISUALC71\WIN32_LIB_RELEASE\ZLIB\UNCOMPR.OBJ
C:\USERS\SERGI\DOCUMENTS\VISUAL STUDIO 2015\PROJECTS\QUAKE\PROZACQW\LPNG1637\PROJECTS\VISUALC71\WIN32_LIB_RELEASE\ZLIB\TREES.OBJ
C:\USERS\SERGI\DOCUMENTS\VISUAL STUDIO 2015\PROJECTS\QUAKE\PROZACQW\LPNG1637\PROJECTS\VISUALC71\WIN32_LIB_RELEASE\ZLIB\INFTREES.OBJ
C:\USERS\SERGI\DOCUMENTS\VISUAL STUDIO 2015\PROJECTS\QUAKE\PROZACQW\LPNG1637\PROJECTS\VISUALC71\WIN32_LIB_RELEASE\ZLIB\INFLATE.OBJ
C:\USERS\SERGI\DOCUMENTS\VISUAL STUDIO 2015\PROJECTS\QUAKE\PROZACQW\LPNG1637\PROJECTS\VISUALC71\WIN32_LIB_RELEASE\ZLIB\INFFAST.OBJ
C:\USERS\SERGI\DOCUMENTS\VISUAL STUDIO 2015\PROJECTS\QUAKE\PROZACQW\LPNG1637\PROJECTS\VISUALC71\WIN32_LIB_RELEASE\ZLIB\INFBACK.OBJ
C:\USERS\SERGI\DOCUMENTS\VISUAL STUDIO 2015\PROJECTS\QUAKE\PROZACQW\LPNG1637\PROJECTS\VISUALC71\WIN32_LIB_RELEASE\ZLIB\GZWRITE.OBJ
C:\USERS\SERGI\DOCUMENTS\VISUAL STUDIO 2015\PROJECTS\QUAKE\PROZACQW\LPNG1637\PROJECTS\VISUALC71\WIN32_LIB_RELEASE\ZLIB\GZREAD.OBJ
C:\USERS\SERGI\DOCUMENTS\VISUAL STUDIO 2015\PROJECTS\QUAKE\PROZACQW\LPNG1637\PROJECTS\VISUALC71\WIN32_LIB_RELEASE\ZLIB\GZLIB.OBJ
C:\USERS\SERGI\DOCUMENTS\VISUAL STUDIO 2015\PROJECTS\QUAKE\PROZACQW\LPNG1637\PROJECTS\VISUALC71\WIN32_LIB_RELEASE\ZLIB\GZCLOSE.OBJ
C:\USERS\SERGI\DOCUMENTS\VISUAL STUDIO 2015\PROJECTS\QUAKE\PROZACQW\LPNG1637\PROJECTS\VISUALC71\WIN32_LIB_RELEASE\ZLIB\DEFLATE.OBJ
C:\USERS\SERGI\DOCUMENTS\VISUAL STUDIO 2015\PROJECTS\QUAKE\PROZACQW\LPNG1637\PROJECTS\VISUALC71\WIN32_LIB_RELEASE\ZLIB\CRC32.OBJ
C:\USERS\SERGI\DOCUMENTS\VISUAL STUDIO 2015\PROJECTS\QUAKE\PROZACQW\LPNG1637\PROJECTS\VISUALC71\WIN32_LIB_RELEASE\ZLIB\COMPRESS.OBJ
C:\USERS\SERGI\DOCUMENTS\VISUAL STUDIO 2015\PROJECTS\QUAKE\PROZACQW\LPNG1637\PROJECTS\VISUALC71\WIN32_LIB_RELEASE\ZLIB\ADLER32.OBJ
^C:\USERS\SERGI\DOCUMENTS\VISUAL STUDIO 2015\PROJECTS\QUAKE\PROZACQW\ZLIB\ADLER32.C
C:\USERS\SERGI\DOCUMENTS\VISUAL STUDIO 2015\PROJECTS\QUAKE\PROZACQW\LPNG1637\PROJECTS\VISUALC71\WIN32_LIB_RELEASE\ZLIB\ZLIB.PDB
^C:\USERS\SERGI\DOCUMENTS\VISUAL STUDIO 2015\PROJECTS\QUAKE\PROZACQW\ZLIB\COMPRESS.C
C:\USERS\SERGI\DOCUMENTS\VISUAL STUDIO 2015\PROJECTS\QUAKE\PROZACQW\LPNG1637\PROJECTS\VISUALC71\WIN32_LIB_RELEASE\ZLIB\ZLIB.PDB
^C:\USERS\SERGI\DOCUMENTS\VISUAL STUDIO 2015\PROJECTS\QUAKE\PROZACQW\ZLIB\CRC32.C
C:\USERS\SERGI\DOCUMENTS\VISUAL STUDIO 2015\PROJECTS\QUAKE\PROZACQW\LPNG1637\PROJECTS\VISUALC71\WIN32_LIB_RELEASE\ZLIB\ZLIB.PDB
^C:\USERS\SERGI\DOCUMENTS\VISUAL STUDIO 2015\PROJECTS\QUAKE\PROZACQW\ZLIB\DEFLATE.C
C:\USERS\SERGI\DOCUMENTS\VISUAL STUDIO 2015\PROJECTS\QUAKE\PROZACQW\LPNG1637\PROJECTS\VISUALC71\WIN32_LIB_RELEASE\ZLIB\ZLIB.PDB
^C:\USERS\SERGI\DOCUMENTS\VISUAL STUDIO 2015\PROJECTS\QUAKE\PROZACQW\ZLIB\GZCLOSE.C
C:\USERS\SERGI\DOCUMENTS\VISUAL STUDIO 2015\PROJECTS\QUAKE\PROZACQW\LPNG1637\PROJECTS\VISUALC71\WIN32_LIB_RELEASE\ZLIB\ZLIB.PDB
^C:\USERS\SERGI\DOCUMENTS\VISUAL STUDIO 2015\PROJECTS\QUAKE\PROZACQW\ZLIB\GZLIB.C
C:\USERS\SERGI\DOCUMENTS\VISUAL STUDIO 2015\PROJECTS\QUAKE\PROZACQW\LPNG1637\PROJECTS\VISUALC71\WIN32_LIB_RELEASE\ZLIB\ZLIB.PDB
^C:\USERS\SERGI\DOCUMENTS\VISUAL STUDIO 2015\PROJECTS\QUAKE\PROZACQW\ZLIB\GZREAD.C
C:\USERS\SERGI\DOCUMENTS\VISUAL STUDIO 2015\PROJECTS\QUAKE\PROZACQW\LPNG1637\PROJECTS\VISUALC71\WIN32_LIB_RELEASE\ZLIB\ZLIB.PDB
^C:\USERS\SERGI\DOCUMENTS\VISUAL STUDIO 2015\PROJECTS\QUAKE\PROZACQW\ZLIB\GZWRITE.C
C:\USERS\SERGI\DOCUMENTS\VISUAL STUDIO 2015\PROJECTS\QUAKE\PROZACQW\LPNG1637\PROJECTS\VISUALC71\WIN32_LIB_RELEASE\ZLIB\ZLIB.PDB
^C:\USERS\SERGI\DOCUMENTS\VISUAL STUDIO 2015\PROJECTS\QUAKE\PROZACQW\ZLIB\INFBACK.C
C:\USERS\SERGI\DOCUMENTS\VISUAL STUDIO 2015\PROJECTS\QUAKE\PROZACQW\LPNG1637\PROJECTS\VISUALC71\WIN32_LIB_RELEASE\ZLIB\ZLIB.PDB
^C:\USERS\SERGI\DOCUMENTS\VISUAL STUDIO 2015\PROJECTS\QUAKE\PROZACQW\ZLIB\INFFAST.C
C:\USERS\SERGI\DOCUMENTS\VISUAL STUDIO 2015\PROJECTS\QUAKE\PROZACQW\LPNG1637\PROJECTS\VISUALC71\WIN32_LIB_RELEASE\ZLIB\ZLIB.PDB
^C:\USERS\SERGI\DOCUMENTS\VISUAL STUDIO 2015\PROJECTS\QUAKE\PROZACQW\ZLIB\INFLATE.C
C:\USERS\SERGI\DOCUMENTS\VISUAL STUDIO 2015\PROJECTS\QUAKE\PROZACQW\LPNG1637\PROJECTS\VISUALC71\WIN32_LIB_RELEASE\ZLIB\ZLIB.PDB
^C:\USERS\SERGI\DOCUMENTS\VISUAL STUDIO 2015\PROJECTS\QUAKE\PROZACQW\ZLIB\INFTREES.C
C:\USERS\SERGI\DOCUMENTS\VISUAL STUDIO 2015\PROJECTS\QUAKE\PROZACQW\LPNG1637\PROJECTS\VISUALC71\WIN32_LIB_RELEASE\ZLIB\ZLIB.PDB
^C:\USERS\SERGI\DOCUMENTS\VISUAL STUDIO 2015\PROJECTS\QUAKE\PROZACQW\ZLIB\TREES.C
C:\USERS\SERGI\DOCUMENTS\VISUAL STUDIO 2015\PROJECTS\QUAKE\PROZACQW\LPNG1637\PROJECTS\VISUALC71\WIN32_LIB_RELEASE\ZLIB\ZLIB.PDB
^C:\USERS\SERGI\DOCUMENTS\VISUAL STUDIO 2015\PROJECTS\QUAKE\PROZACQW\ZLIB\UNCOMPR.C
C:\USERS\SERGI\DOCUMENTS\VISUAL STUDIO 2015\PROJECTS\QUAKE\PROZACQW\LPNG1637\PROJECTS\VISUALC71\WIN32_LIB_RELEASE\ZLIB\ZLIB.PDB
^C:\USERS\SERGI\DOCUMENTS\VISUAL STUDIO 2015\PROJECTS\QUAKE\PROZACQW\ZLIB\ZUTIL.C
C:\USERS\SERGI\DOCUMENTS\VISUAL STUDIO 2015\PROJECTS\QUAKE\PROZACQW\LPNG1637\PROJECTS\VISUALC71\WIN32_LIB_RELEASE\ZLIB\ZLIB.PDB
